{
    "numberlevel": 1,
    "stopPoint": {
        "x": 0.0,
        "y": 8.241806983947754
    },
    "addressStopPoint": 3206,
    "spawnPointJsons": [
        {
            "address": 3106,
            "posSpawnPoint": {
                "x": 0.0,
                "y": 7.821080207824707
            },
            "waveJsons": [
                {
                    "numberWeapon": 0,
                    "spawnInLine": false,
                    "deltaTimeNext": 0.0,
                    "destroyAllToNext": false,
                    "enemyJsons": [
                        {
                            "positionEnemy": {
                                "x": 0.0,
                                "y": 0.0
                            },
                            "id": 0,
                            "type": 0
                        },
                        {
                            "positionEnemy": {
                                "x": 0.0,
                                "y": 0.0
                            },
                            "id": 1,
                            "type": 0
                        }
                    ],
                    "destinations": []
                }
            ]
        }
    ],
    "listBarriers": []
}