{
    "numberlevel": 4,
    "stopPoint": {
        "x": -0.43264949321746828,
        "y": 10.345438003540039
    },
    "addressStopPoint": 3705,
    "spawnPointJsons": [
        {
            "address": 3206,
            "posSpawnPoint": {
                "x": 0.0,
                "y": 8.241806983947754
            },
            "waveJsons": [
                {
                    "numberWeapon": 0,
                    "spawnInLine": false,
                    "timeToNext": 0.0,
                    "destroyAllToNext": false,
                    "enemyJsons": [
                        {
                            "positionEnemy": {
                                "x": -3.9800000190734865,
                                "y": -1.3037492036819459
                            },
                            "id": 0,
                            "type": 1
                        },
                        {
                            "positionEnemy": {
                                "x": 3.940000057220459,
                                "y": -1.3037492036819459
                            },
                            "id": 0,
                            "type": 1
                        },
                        {
                            "positionEnemy": {
                                "x": -1.7305988073349,
                                "y": 6.179999828338623
                            },
                            "id": 0,
                            "type": 1
                        },
                        {
                            "positionEnemy": {
                                "x": 2.1632490158081056,
                                "y": 6.329999923706055
                            },
                            "id": 0,
                            "type": 1
                        }
                    ],
                    "line": [],
                    "followFormation": {
                        "x": 0.0,
                        "y": 0.0
                    }
                }
            ]
        }
    ],
    "listBarriers": []
}